Place,Name,Sex,Event,Division,WeightClassKg,Equipment,BirthYear,Team,State,BodyweightKg,Squat1Kg,Squat2Kg,Squat3Kg,Best3SquatKg,Bench1Kg,Bench2Kg,Bench3Kg,Best3BenchKg,Deadlift1Kg,Deadlift2Kg,Deadlift3Kg,Best3DeadliftKg,TotalKg,Age,BirthDate
1,Zachary Volquardts,M,B,MR-O,93,Raw,1995,,LA,85.9,,,,,85,87.5,92.5,92.5,,,,,92.5,,
1,Madison Hamilton,F,SBD,FR-O,52,Raw,2005,,FL,51,90,95,97.5,97.5,52.5,55,57.5,57.5,110,115,120,120,275,,
1,Elizabeth Base,F,SBD,FR-O,63,Raw,1994,,TX,61.9,125,132.5,-137.5,132.5,85,87.5,92.5,92.5,130,135,-137.5,135,360,,
2,Adriana Limon,F,SBD,FR-O,63,Raw,1987,,TX,62.7,-100,-100,100,100,57.5,62.5,-67.5,62.5,122.5,130,137.5,137.5,300,,
1,Tiffany Smith,F,SBD,FR-O,72,Raw,1990,,OK,67.3,120,125,127.5,127.5,57.5,62.5,-65,62.5,125,130,135,135,325,,
1,Madison Hamilton,F,SBD,FR-T1,52,Raw,2005,,FL,51,90,95,97.5,97.5,52.5,55,57.5,57.5,110,115,120,120,275,,
1,Amelia Cooper,F,SBD,FR-Y1,35,Raw,2010,Endunamoo Barbell Club,TX,30.7,15,22.5,27.5,27.5,15,17.5,20,20,25,37.5,47.5,47.5,95,,
1,Valerie Brazda,F,SBD,FR-Y1,52,Raw,2010,,TX,50.1,-20,-20,20,20,15,17.5,20,20,35,50,55,55,95,,
1,Criselda Facundo,F,SBD,F-T2,52,Single-ply,2001,,TX,52,102.5,115,-125,115,52.5,60,-62.5,60,127.5,140,142.5,142.5,317.5,,
1,Austin Ballard,M,SBD,MR-C,83,Raw,2000,Tarleton Powerlifting,TX,80.88,215,227.5,-235,227.5,130,132.5,-137.5,132.5,240,250,-272.5,250,610,,
2,Eric Cutherell,M,SBD,MR-C,83,Raw,1999,,TX,81.94,175,185,195,195,122.5,127.5,130,130,185,195,207.5,207.5,532.5,,
1,Jacob Jones,M,SBD,MR-C,120,Raw,2000,,TX,111.11,210,217.5,227.5,227.5,125,130,,130,235,250,-265,250,607.5,,
1,Travis Shouse,M,SBD,MR-C,120+,Raw,1998,Tarleton Powerlifting,TX,144.01,290,307.5,320,320,165,177.5,-185,177.5,295,-330,-330,295,792.5,,
2,Daniel Gilmore,M,SBD,MR-C,120+,Raw,1995,Tarleton Powerlifting,TX,137.95,252.5,270,282.5,282.5,157.5,165,-175,165,245,252.5,-265,252.5,700,,
3,Max Casas,M,SBD,MR-C,120+,Raw,2000,,TX,150,227.5,,,227.5,137.5,,,137.5,227.5,,,227.5,592.5,,
1,Brian Nguyen #3,M,SBD,MR-Jr,53,Raw,1999,,TX,52.19,110,117.5,127.5,127.5,72.5,80,-85,80,140,150,157.5,157.5,365,,
1,Sanjay Seenarine,M,SBD,MR-Jr,59,Raw,1999,,TX,55.82,100,117.5,130,130,65,-70,-70,65,127.5,140,145,145,340,,
1,Sebastian Becerra,M,SBD,MR-Jr,66,Raw,1998,,TX,64.76,125,137.5,150,150,-85,95,-97.5,95,150,162.5,177.5,177.5,422.5,,
1,Ricky Huynh,M,SBD,MR-Jr,74,Raw,1999,,TX,71.24,155,165,175,175,112.5,120,127.5,127.5,215,230,-245,230,532.5,,
2,Jeffrey Furnish,M,SBD,MR-Jr,74,Raw,1997,,TX,72.4,155,160,165,165,117.5,122.5,125,125,195,207.5,-217.5,207.5,497.5,,
1,Jacob Alecio,M,SBD,MR-Jr,83,Raw,1998,,TX,80.25,205,217.5,227.5,227.5,130,137.5,145,145,235,250,257.5,257.5,630,,
1,Eric Walker,M,SBD,MR-Jr,105,Raw,1999,,OK,98.24,177.5,182.5,-190,182.5,115,120,-125,120,185,192.5,210,210,512.5,,
1,Dru Gomez,M,SBD,MR-Jr,120,Raw,1997,,TX,106.3,175,185,192.5,192.5,117.5,-125,-125,117.5,-197.5,212.5,-220,212.5,522.5,,
1,Daniel Gilmore,M,SBD,MR-Jr,120+,Raw,1995,Tarleton Powerlifting,TX,137.95,252.5,270,282.5,282.5,157.5,165,-175,165,245,252.5,-265,252.5,700,,
1,Jeb Lyne,M,SBD,MR-M1b,105,Raw,1974,,TX,104.64,110,142.5,-160,142.5,110,120,-130,120,220,230,-235,230,492.5,,
2,Chad Recer,M,SBD,MR-M1a,105,Raw,1979,,TX,95.31,125,135,142.5,142.5,80,-87.5,-92.5,80,140,152.5,162.5,162.5,385,,
1,Richard Dowdy,M,SBD,MR-M2a,120+,Raw,1969,,TX,120.4,150,,,150,30,,,30,250,270,285,285,465,,
1,Zachary Adkins,M,SBD,MR-O,74,Raw,1988,,GA,73.76,170,182.5,-190,182.5,-120,120,-127.5,120,215,225,-237.5,225,527.5,,
2,Brandon Garcia,M,SBD,MR-O,74,Raw,1988,,TX,73.07,160,167.5,-170,167.5,115,117.5,-120,117.5,185,200,210,210,495,,
3,Cody Almendarez,M,SBD,MR-O,74,Raw,1992,,TX,67.26,145,155,162.5,162.5,80,82.5,-87.5,82.5,190,205,212.5,212.5,457.5,,
1,Jacob Alecio,M,SBD,MR-O,83,Raw,1998,,TX,80.25,205,217.5,227.5,227.5,130,137.5,145,145,235,250,257.5,257.5,630,,
2,Phillip White,M,SBD,MR-O,83,Raw,1991,,TX,76.94,175,185,190,190,112.5,117.5,122.5,122.5,175,190,200,200,512.5,,
1,James Smith,M,SBD,MR-O,93,Raw,1991,,AR,91.41,212.5,222.5,227.5,227.5,150,157.5,165,165,220,235,245,245,637.5,,
2,William Gravitt,M,SBD,MR-O,93,Raw,1998,,TX,91.15,190,205,-210,205,105,115,-125,115,215,230,-240,230,550,,
3,Daniel Ratliff,M,SBD,MR-O,93,Raw,1998,,TX,92.59,135,145,150,150,85,90,92.5,92.5,155,-165,175,175,417.5,,
1,Drew Hill,M,SBD,MR-O,105,Raw,1991,,TX,103.62,245,260,-272.5,260,152.5,-160,,152.5,272.5,292.5,,292.5,705,,
2,Matthew Poisson,M,SBD,MR-O,105,Raw,1991,,TX,104.92,237.5,-247.5,,237.5,147.5,155,-160,155,255,265,-272.5,265,657.5,,
3,Braden Kesler,M,SBD,MR-O,105,Raw,1998,,TX,104,215,230,,230,125,135,-137.5,135,290,-307.5,,290,655,,
4,Donald Crowder,M,SBD,MR-O,105,Raw,1986,,TX,101.24,125,135,137.5,137.5,115,120,127.5,127.5,190,195,200,200,465,,
DQ,Michael Battaglino,M,SBD,MR-O,105,Raw,1985,,TX,103.39,230,242.5,,242.5,140,-145,-145,140,,,,,,,
1,Colin Kanavel,M,SBD,MR-O,120,Raw,1991,,TX,116.89,220,-245,250,250,135,140,-145,140,255,265,-275,265,655,,
2,Enrique Infante,M,SBD,MR-O,120,Raw,1982,,TX,113.75,207.5,217.5,-230,217.5,152.5,160,162.5,162.5,207.5,222.5,240,240,620,,
3,John Chancellor,M,SBD,MR-O,120,Raw,1994,,TX,115.9,210,220,230,230,140,-145,,140,220,230,-235,230,600,,
4,Cody Smith,M,SBD,MR-O,120,Raw,1992,,AR,107.83,202.5,215,220,220,125,135,-140,135,205,215,225,225,580,,
1,Travis Shouse,M,SBD,MR-O,120+,Raw,1998,Tarleton Powerlifting,TX,144.01,290,307.5,320,320,165,177.5,-185,177.5,295,-330,-330,295,792.5,,
2,Daniel Gilmore,M,SBD,MR-O,120+,Raw,1995,Tarleton Powerlifting,TX,137.95,252.5,270,282.5,282.5,157.5,165,-175,165,245,252.5,-265,252.5,700,,
3,Gregory Burgard,M,SBD,MR-O,120+,Raw,1993,,TX,146.68,245,255,265,265,145,147.5,150,150,255,270,285,285,700,,
4,Benjaman Adams,M,SBD,MR-O,120+,Raw,1984,,TX,126.2,190,-200,200,200,135,-140,-140,135,192.5,210,227.5,227.5,562.5,,
1,Zachary Adkins,M,SBD,MR-PF,74,Raw,1988,,GA,73.76,170,182.5,-190,182.5,-120,120,-127.5,120,215,225,-237.5,225,527.5,,
2,Cody Almendarez,M,SBD,MR-PF,74,Raw,1992,,TX,67.26,145,155,162.5,162.5,80,82.5,-87.5,82.5,190,205,212.5,212.5,457.5,,
1,Joe Rousseau,M,SBD,MR-T2,66,Raw,2002,,TX,65.6,-145,152.5,160,160,85,92.5,95,95,182.5,192.5,200,200,455,,
1,Dylan Fox,M,SBD,MR-T3,74,Raw,2001,,OK,72.41,155,162.5,170,170,105,-115,115,115,175,182.5,-187.5,182.5,467.5,,
1,Austin Ballard,M,SBD,MR-T3,83,Raw,2000,Tarleton Powerlifting,TX,80.88,215,227.5,-235,227.5,130,132.5,-137.5,132.5,240,250,-272.5,250,610,,
1,Lucas Wick,M,SBD,MR-T3,105,Raw,2001,,TX,102.49,175,182.5,195,195,110,115,120,120,195,205,-215,205,520,,
DQ,Keenan Riordan,M,SBD,MR-T3,105,Raw,1999,,TX,96.14,237.5,245,-250,245,142.5,147.5,150,150,-257.5,-257.5,,,,,
1,Aaron Watson,M,SBD,M-T3,93,Single-ply,2001,Matador Powerlifting,TX,88.81,190,-200,215,215,110,117.5,-125,117.5,190,210,222.5,222.5,555,,
1,Madison Hamilton,F,BD,FR-T1,52,Raw,2005,,FL,51,,,,,52.5,55,57.5,57.5,110,115,120,120,177.5,,
