Name,Sex,State,BirthYear,BirthDate,Division,Equipment,Event,BodyweightKg,WeightClassKg,Squat1Kg,Squat2Kg,Squat3Kg,Best3SquatKg,Bench1Kg,Bench2Kg,Bench3Kg,Best3BenchKg,Deadlift1Kg,Deadlift2Kg,Deadlift3Kg,Best3DeadliftKg,TotalKg,Place
Tiggy Sadler-Barker,F,NSW,2005,,FR-SJ,Raw,SBD,75.6,76,127.5,136,142.5,142.5,85,-90,-90,85,130,140,-146,140,367.5,1
Taylor Evans #4,F,NSW,2005,,FR-SJ,Raw,SBD,83.65,84,102.5,110,-112.5,110,57.5,-60,-60,57.5,107.5,115,120,120,287.5,1
Zahra Mushref,F,NSW,2004,,FR-SJ,Raw,SBD,83.85,84,95,100,-102.5,100,50,55,-57.5,55,110,-122.5,-132.5,110,265,2
Shelby Dahler,F,WA,2005,,FR-SJ,Raw,SBD,138.1,84+,135,150,160,160,65,75,80,80,125,135,-140,135,375,1
Zara Shipley,F,QLD,2005,,FR-SJ,Raw,SBD,89.2,84+,105,110,115,115,52.5,55,-57.5,55,122.5,127.5,130,130,300,2
Jasmine Taranawiwat,F,NSW,2003,,FR-Jr,Raw,SBD,51.2,52,75,82.5,90,90,35,40,42.5,42.5,107.5,115,122.5,122.5,255,1
Therese Duong,F,NSW,1999,,FR-Jr,Raw,SBD,55.75,57,120,-122.5,-122.5,120,82.5,88.5,91,91,155,165,-170,165,376,1
Katherine Pham,F,NSW,2002,,FR-Jr,Raw,SBD,56.05,57,105,-112.5,112.5,112.5,57.5,62.5,65,65,122.5,130,-140,130,307.5,2
Despina Nianiakos,F,VIC,2001,,FR-Jr,Raw,SBD,56.9,57,92.5,100,-102.5,100,55,-57.5,57.5,57.5,120,130,-140,130,287.5,3
Thuy Vy Pham,F,VIC,2000,,FR-Jr,Raw,SBD,62.55,63,140,-147.5,147.5,147.5,80,85,-87.5,85,170,175,-177.5,175,407.5,1
Ebony Grey,F,ACT,2000,,FR-Jr,Raw,SBD,62.1,63,132.5,137.5,142.5,142.5,82.5,87.5,-90,87.5,155,162.5,165,165,395,2
Jessica Liu,F,VIC,2003,,FR-Jr,Raw,SBD,61.15,63,132.5,140,145,145,94,97,98.5,98.5,142.5,-152.5,-160,142.5,386,3
Diva Ngo,F,VIC,1999,,FR-Jr,Raw,SBD,62.4,63,122.5,130,135,135,62.5,-67.5,-67.5,62.5,157.5,167.5,172.5,172.5,370,4
Patricia Manuel,F,NSW,1999,,FR-Jr,Raw,SBD,61.7,63,-125,-125,-125,,52.5,57.5,-62.5,57.5,135,145,152.5,152.5,,DQ
Laura Chapman,F,NSW,1999,,FR-Jr,Raw,SBD,67.45,69,142.5,150.5,153,153,70,75,77.5,77.5,157.5,165,,165,395.5,1
Sally Corrigan,F,NSW,1999,,FR-Jr,Raw,SBD,68.45,69,125,132.5,137.5,137.5,80,85,-87.5,85,150,160,165,165,387.5,2
Jazmin Reid,F,WA,1999,,FR-Jr,Raw,SBD,68.8,69,135,142.5,-147.5,142.5,-70,70,-75,70,140,-150,157.5,157.5,370,3
Skylar Donaldson,F,NSW,2001,,FR-Jr,Raw,SBD,66.3,69,115,125,130,130,75,-82.5,-82.5,75,140,150,160,160,365,4
Annabelle Owen,F,NSW,1999,,FR-Jr,Raw,SBD,68.45,69,132.5,140,-142.5,140,70,75,-80,75,135,145,-150,145,360,5
Isabelle Hemmings,F,QLD,2001,,FR-Jr,Raw,SBD,67.85,69,120,127.5,-132.5,127.5,-75,75,80,80,135,145,152.5,152.5,360,6
Maria Houseas,F,NSW,2002,,FR-Jr,Raw,SBD,67.9,69,115,125,-132.5,125,62.5,67.5,70,70,140,155,-162.5,155,350,7
Jessica Cook #1,F,NSW,2002,,FR-Jr,Raw,SBD,67.85,69,110,117.5,122.5,122.5,75,80,82.5,82.5,127.5,132.5,137.5,137.5,342.5,8
Leanne Jackson,F,NSW,2000,,FR-Jr,Raw,SBD,74.5,76,127.5,135,-140,135,107.5,112.5,117.5,117.5,170,180,-183,180,432.5,1
Olivia Resman,F,NSW,2001,,FR-Jr,Raw,SBD,74.9,76,122.5,132.5,137.5,137.5,72.5,77.5,-80,77.5,145,157.5,165,165,380,2
Jamie-Lee Griffiths,F,QLD,1999,,FR-Jr,Raw,SBD,73.05,76,112.5,117.5,-122.5,117.5,-75,75,-80,75,140,145,155,155,347.5,3
Scarlett Shine,F,NSW,2003,,FR-Jr,Raw,SBD,73.1,76,105,112.5,-117.5,112.5,70,72.5,-75,72.5,140,147.5,155,155,340,4
Aeva Petranovic,F,NSW,1999,,FR-Jr,Raw,SBD,74.95,76,105,115,-122.5,115,55,62.5,-65,62.5,125,140,147.5,147.5,325,5
Chanel Marley,F,NSW,1999,,FR-Jr,Raw,SBD,80.4,84,110,120,130,130,85,92.5,-100,92.5,155,165,175.5,175.5,398,1
Petra Haiad,F,NSW,2000,,FR-Jr,Raw,SBD,94.9,84+,95,102.5,-105,102.5,80,-86,86,86,125,137.5,145,145,333.5,1
Willoe Freeman,F,NSW,1976,,FR-M1,Raw,B,61.95,63,,,,,67.5,72.5,76,76,,,,,76,1
Mia Cullino,F,VIC,1977,,FR-M1,Raw,B,143.1,84+,,,,,96,-100,-100,96,,,,,96,1
Natalie Bartolo,F,NSW,1981,,FR-M1,Raw,SBD,51.7,52,100,105,-110,105,55,-60,-60,55,120,127.5,133,133,293,1
Meaghan Trovato,F,QLD,1979,,FR-M1,Raw,SBD,62.5,63,120,127.5,130,130,67.5,72.5,-75.5,72.5,130,140,150,150,352.5,1
Rachel Noble,F,VIC,1974,,FR-M1,Raw,SBD,62.9,63,105,115,122.5,122.5,57.5,-62.5,-62.5,57.5,135,145,152.5,152.5,332.5,2
Sharna Sumpton,F,WA,1974,,FR-M1,Raw,SBD,62.45,63,-95,95,-105,95,47.5,-52.5,52.5,52.5,125,135,-140,135,282.5,3
Corinne Napoli,F,NSW,1979,,FR-M1,Raw,SBD,60.8,63,-95,95,-97.5,95,50,-52.5,52.5,52.5,110,115,120,120,267.5,4
Melanie Green,F,NSW,1980,,FR-M1,Raw,SBD,67.75,69,137.5,145,148.5,148.5,75,-80,-80,75,175,185,193,193,416.5,1
Melissa Trivic,F,WA,1978,,FR-M1,Raw,SBD,68.45,69,85,95,100,100,40,-45,-45,40,135,145,-150,145,285,2
Sarah Wheal,F,QLD,1977,,FR-M1,Raw,SBD,75.05,76,125,130,-135,130,80,82.5,85,85,140,147.5,152.5,152.5,367.5,1
Olivia Lannon,F,WA,1980,,FR-M1,Raw,SBD,70.85,76,110,120,125,125,60,65,67.5,67.5,145,155,160,160,352.5,2
Lanai Elbourne,F,NSW,1973,,FR-M1,Raw,SBD,75.8,76,90,97.5,-105,97.5,65,-70,70,70,132.5,142.5,-150,142.5,310,3
Penelope Shearer,F,NT,1981,,FR-M1,Raw,SBD,82.8,84,145,152.5,-157.5,152.5,70,-75,75,75,155,165,172.5,172.5,400,1
Deb Proud,F,TAS,1974,,FR-M1,Raw,SBD,79,84,127.5,137.5,145,145,65,70,-75,70,135,155,165,165,380,2
Abbi Bosward-Fielding,F,NSW,1981,,FR-M1,Raw,SBD,82.7,84,117.5,127.5,132.5,132.5,67.5,70,72.5,72.5,155,165,-170.5,165,370,3
Anastasia Knight,F,QLD,1981,,FR-M1,Raw,SBD,79.7,84,122.5,132.5,-137.5,132.5,62.5,-67.5,67.5,67.5,132.5,142.5,150,150,350,4
Regen Foot,F,WA,1975,,FR-M1,Raw,SBD,81,84,80,85,87.5,87.5,-55,-55,-55,,105,115,-117.5,115,,DQ
Sarah Gilbert-Moore,F,ACT,1981,,FR-M1,Raw,SBD,80.5,84,112.5,-117.5,117.5,117.5,40,42.5,45,45,135,-145,-145,135,297.5,5
Caroline Dunkley,F,QLD,1980,,FR-M1,Raw,SBD,83.45,84,-140,-140,-140,,62.5,65,67.5,67.5,150,162.5,170,170,,DQ
Lisa Bullock,F,VIC,1965,,FR-M2,Raw,B,94,84+,,,,,75,80,-85,80,,,,,80,1
Linda Jensen,F,ACT,1965,,FR-M2,Raw,SBD,56.35,57,102.5,105,-107.5,105,-57.5,57.5,60,60,135,140,145,145,310,1
Joanna Lawrence,F,VIC,1970,,FR-M2,Raw,SBD,62.3,63,107.5,112.5,115,115,75,77.5,-80,77.5,130,140,-145,140,332.5,1
Annette Taylor,F,WA,1963,,FR-M2,Raw,SBD,61.05,63,-105,105,115,115,52.5,57.5,-60,57.5,135,145,-150,145,317.5,2
Sue Sweeney,F,QLD,1967,,FR-M2,Raw,SBD,62.75,63,-100,-100,100,100,52.5,-55,-55,52.5,115,125,130,130,282.5,3
Alicia Price,F,QLD,1970,,FR-M2,Raw,SBD,65.45,69,105,115,-122.5,115,60,65,-67.5,65,125,130,135,135,315,1
Carole Condon,F,ACT,1965,,FR-M2,Raw,SBD,74.85,76,110,115,122.5,122.5,65,67.5,70,70,137.5,142.5,152.5,152.5,345,1
Kylie Dwyer,F,QLD,1970,,FR-M2,Raw,SBD,71.15,76,110,120,-125,120,60,65,-70,65,140,152.5,-160,152.5,337.5,2
Michelle Wilson,F,QLD,1971,,FR-M2,Raw,SBD,73.95,76,107.5,112.5,121,121,62.5,67.5,-70,67.5,115,125,135,135,323.5,3
Brooke Bailey,F,NSW,1970,,FR-M2,Raw,SBD,73.65,76,100,105,-110,105,67.5,72.5,75,75,110,120,-130,120,300,4
Kelly Stoikov,F,WA,1971,,FR-M2,Raw,SBD,83.7,84,140,-142.5,-142.5,140,67.5,70,-72.5,70,160,167.5,173.5,173.5,383.5,1
Esther Cawthorn,F,TAS,1971,,FR-M2,Raw,SBD,97.95,84+,95,100,105,105,62.5,67.5,-70,67.5,117.5,122.5,127.5,127.5,300,1
Sharyn Reading,F,NSW,1971,,FR-M2,Raw,SBD,97.95,84+,-115,-125,-125,,,,,,,,,,,DQ
Kerri Smith #1,F,NSW,1957,,FR-M3,Raw,SBD,63.8,69,-90,-90,-90,,55,57.5,60,60,117.5,125,132.5,132.5,,DQ
Teresa Milynn,F,ACT,1954,,FR-M3,Raw,SBD,73.85,76,-77.5,77.5,-82.5,77.5,40,-42.5,42.5,42.5,100,107.5,-112.5,107.5,227.5,1
Peta Day,F,QLD,1959,,FR-M3,Raw,SBD,83.15,84,122.5,130,132.5,132.5,62.5,65,67.5,67.5,157.5,165,-167.5,165,365,1
Vicki Stamoulis,F,WA,1954,,FR-M3,Raw,SBD,83.5,84,-47.5,52.5,-57.5,52.5,37.5,42.5,-47.5,42.5,127.5,137.5,-145,137.5,232.5,2
Marion Baird,F,NSW,1957,,FR-M3,Raw,SBD,107.15,84+,-80,-85,-85,,50,-52.5,-52.5,50,120,-127.5,-127.5,120,,DQ
Luke Talley #1,M,NSW,2006,,MR-SJ,Raw,SBD,51.6,53,160,170,175,175,87.5,92.5,95,95,105,112.5,120,120,390,1
Benjamin Crowley,M,ACT,2004,,MR-SJ,Raw,SBD,61.65,66,135,145,-155,145,-125,125,-130,125,180,-190,190,190,460,1
Nicolas Muir,M,QLD,2004,,MR-SJ,Raw,SBD,72.95,74,167.5,180,-182.5,180,-112.5,112.5,118,118,-205,217.5,225,225,523,1
Mitchell Telford,M,QLD,2007,,MR-SJ,Raw,SBD,69.3,74,140,150,155,155,100,105,107.5,107.5,165,175,185,185,447.5,2
Allan Le,M,VIC,2005,,MR-SJ,Raw,SBD,69.95,74,-152.5,160,-165,160,82.5,87.5,92.5,92.5,182.5,190,195,195,447.5,3
Alex Nader,M,NSW,2004,,MR-SJ,Raw,SBD,72.85,74,210,212.5,225,225,-110,110,-117.5,110,-245,-245,-245,,,DQ
Benjamin Ou Yang,M,NSW,2004,,MR-SJ,Raw,SBD,80.85,83,175,187.5,192.5,192.5,110,115,-117.5,115,205,212.5,-217.5,212.5,520,1
Joel Lucas,M,QLD,2005,,MR-SJ,Raw,SBD,78.95,83,185,202.5,-210,202.5,100,105,-107.5,105,190,205,-215,205,512.5,2
Isaac Grimsey,M,TAS,2004,,MR-SJ,Raw,SBD,78.1,83,150,157.5,165,165,87.5,92.5,95,95,200,212.5,-220,212.5,472.5,3
Adam Cypser,M,VIC,2006,,MR-SJ,Raw,SBD,83,83,130,140,150,150,70,77.5,82.5,82.5,195,212.5,225,225,457.5,4
Corey Jones #2,M,VIC,2005,,MR-SJ,Raw,SBD,83,83,,,,,,,,,,,,,,DQ
Sean Pan,M,VIC,2004,,MR-SJ,Raw,SBD,87.75,93,197.5,212.5,222.5,222.5,160,167.5,172.5,172.5,240,-252.5,-255,240,635,1
Dylan Tran,M,NSW,2005,,MR-SJ,Raw,SBD,90.95,93,185,195,-202.5,195,112.5,117.5,122.5,122.5,215,227.5,232.5,232.5,550,2
Dylan Ede,M,QLD,2004,,MR-SJ,Raw,SBD,89.05,93,180,190,-200,190,-122.5,-122.5,122.5,122.5,-215,215,-225,215,527.5,3
Riley Stephens,M,NSW,2005,,MR-SJ,Raw,SBD,86.2,93,180,195,205,205,100,107.5,112.5,112.5,205,-217.5,-230,205,522.5,4
Michael Lamb,M,QLD,2004,,MR-SJ,Raw,SBD,88.5,93,157.5,167.5,175,175,80,-85,87.5,87.5,180,195,-210,195,457.5,5
Nathaniel Lyons,M,QLD,2004,,MR-SJ,Raw,SBD,104.75,105,225,240,-255,240,160,170,-180,170,230,250,265,265,675,1
Brendan Chand,M,NSW,2004,,MR-SJ,Raw,SBD,103.1,105,215,227.5,232.5,232.5,125,132.5,137.5,137.5,220,240,-252.5,240,610,2
Ben Rozen,M,NSW,2004,,MR-SJ,Raw,SBD,103.6,105,155,165,-172.5,165,115,122.5,-130,122.5,190,205,215,215,502.5,3
Xander Dahler,M,WA,2004,,MR-SJ,Raw,SBD,109.1,120,190,210,220,220,90,100,105,105,210,-225,-235,210,535,1
Nicholas Kalantzis,M,QLD,2004,,MR-SJ,Raw,SBD,140.25,120+,220,235,242.5,242.5,152.5,160,-165,160,-217.5,225,235,235,637.5,1
Justin Penev,M,VIC,2001,,MR-Jr,Raw,B,82.4,83,,,,,170,-175,-175,170,,,,,170,1
Deion Harichandran,M,NSW,1999,,MR-Jr,Raw,SBD,58.65,59,150,160,171,171,107.5,112.5,-115,112.5,-200,200,226,226,509.5,1
Toai Trinh,M,VIC,1999,,MR-Jr,Raw,SBD,66,66,190,-197.5,197.5,197.5,-137.5,137.5,-142.5,137.5,228,-240.5,-240.5,228,563,1
Edward Zhang,M,NSW,2002,,MR-Jr,Raw,SBD,73.55,74,240,255,263,263,152.5,160,167.5,167.5,240,260,270,270,700.5,1
Eric Heng,M,NSW,1999,,MR-Jr,Raw,SBD,73.7,74,217.5,227.5,235,235,-168,168,-170.5,168,242.5,-255,257.5,257.5,660.5,2
Keyan Babaei-Somaghi,M,VIC,2000,,MR-Jr,Raw,SBD,73.65,74,220,235,242.5,242.5,137.5,-147.5,-147.5,137.5,250,267.5,-282.5,267.5,647.5,3
Nicholas Van Groesen,M,NSW,1999,,MR-Jr,Raw,SBD,73.25,74,217.5,230,235,235,120,-125,125,125,240,250,-255,250,610,4
Tsur Tsaban,M,WA,2001,,MR-Jr,Raw,SBD,73.7,74,185,195,205,205,132.5,137.5,-140,137.5,-242.5,-242.5,242.5,242.5,585,5
Matthew Luke,M,NSW,1999,,MR-Jr,Raw,SBD,73.6,74,207.5,220,-227.5,220,125,132.5,-137.5,132.5,212.5,225,-230,225,577.5,6
Cameron McLean #1,M,NSW,2000,,MR-Jr,Raw,SBD,74,74,177.5,185,190,190,145,152.5,155,155,200,215,227.5,227.5,572.5,7
Jason Bui,M,NSW,2001,,MR-Jr,Raw,SBD,72.85,74,200,-210,210,210,100,110,-117.5,110,227.5,240,250,250,570,8
Andy Le,M,VIC,1999,,MR-Jr,Raw,SBD,73.05,74,182.5,195,-200,195,112.5,120,122.5,122.5,220,235,-240,235,552.5,9
Dimitri Tsagaris,M,WA,2002,,MR-Jr,Raw,SBD,72.6,74,-180,180,-192.5,180,127.5,135,140,140,210,-220,225,225,545,10
Luke Agius,M,NSW,1999,,MR-Jr,Raw,SBD,73.55,74,185,200,-210,200,122.5,130,-132.5,130,200,215,-225,215,545,11
Jack Willis #1,M,NSW,1999,,MR-Jr,Raw,SBD,72.9,74,157.5,167.5,-175,167.5,112.5,120,125,125,217.5,220,245,245,537.5,12
Peter Vu,M,VIC,1999,,MR-Jr,Raw,SBD,73,74,172.5,182.5,-190,182.5,102.5,110,112.5,112.5,205,220,-225,220,515,13
Anton Lukas,M,WA,2000,,MR-Jr,Raw,SBD,72.65,74,-162.5,162.5,170,170,-100,100,-105,100,207.5,220,-225,220,490,14
William Hughes,M,WA,2001,,MR-Jr,Raw,SBD,73,74,180,190,195,195,130,137.5,-142.5,137.5,140,-142.5,-142.5,140,472.5,15
Kelvin Tran,M,NSW,2000,,MR-Jr,Raw,SBD,72.45,74,197.5,207.5,215,215,140,145,-147.5,145,-242.5,-242.5,-255,,,DQ
Ewan Belgrove,M,NSW,2000,,MR-Jr,Raw,SBD,82.65,83,267.5,277.5,287.5,287.5,165,170,175,175,260,270,-275,270,732.5,1
James Le,M,NSW,2000,,MR-Jr,Raw,SBD,82.9,83,247.5,262.5,272.5,272.5,155,165,-170,165,247.5,265,277.5,277.5,715,2
Simon Chehade,M,NSW,2001,,MR-Jr,Raw,SBD,82.15,83,245,250,-252.5,250,135,140,-142.5,140,310,-322.5,-342.5,310,700,3
Adam Hussain,M,NSW,2001,,MR-Jr,Raw,SBD,81.6,83,205,222.5,235,235,130,140,-145,140,260,280,295,295,670,4
Matthew Leung,M,QLD,1999,,MR-Jr,Raw,SBD,82.8,83,227.5,242.5,252.5,252.5,145,155,-160,155,232.5,250,255,255,662.5,5
Winston Liang,M,NSW,2001,,MR-Jr,Raw,SBD,82.1,83,215,230,240,240,-145,145,152.5,152.5,235,255,265,265,657.5,6
Ethan Lim,M,VIC,2001,,MR-Jr,Raw,SBD,83,83,202.5,210,215,215,140,145,150,150,280,290,-300,290,655,7
Joseph Ou,M,NSW,2000,,MR-Jr,Raw,SBD,82.3,83,220,235,240,240,150,-160,-160,150,220,240,-245,240,630,8
William Bennett,M,QLD,2001,,MR-Jr,Raw,SBD,77.75,83,207.5,220,227.5,227.5,115,120,-122.5,120,257.5,272.5,277.5,277.5,625,9
Pho Lam,M,QLD,2002,,MR-Jr,Raw,SBD,80.8,83,207.5,220,-230,220,115,120,125,125,245,-257.5,275,275,620,10
Tony Mai #1,M,NSW,1999,,MR-Jr,Raw,SBD,79.2,83,197.5,205,212.5,212.5,110,117.5,120,120,247.5,260,267.5,267.5,600,11
Aaron Moore,M,WA,2001,,MR-Jr,Raw,SBD,81.85,83,190,200,205,205,132.5,140,145,145,212.5,225,240,240,590,12
Tuvaru Toki,M,QLD,2000,,MR-Jr,Raw,SBD,81.85,83,190,200,-215,200,130,-140,140,140,225,235,-245,235,575,13
Alexander Ciccarelli,M,NSW,1999,,MR-Jr,Raw,SBD,77.55,83,195,207.5,-220,207.5,130,135,-140,135,210,225,232.5,232.5,575,14
Brian Kimutai,M,SA,2002,,MR-Jr,Raw,SBD,81.65,83,185,192.5,197.5,197.5,122.5,130,-137.5,130,212.5,230,237.5,237.5,565,15
Zoraze Khurram,M,SA,1999,,MR-Jr,Raw,SBD,83,83,195,205,-212.5,205,105,112.5,117.5,117.5,220,235,242.5,242.5,565,16
Edward Turner,M,ACT,2000,,MR-Jr,Raw,SBD,80.05,83,180,190,-197.5,190,122.5,127.5,-130,127.5,225,242.5,-250,242.5,560,17
Andrew Phan,M,VIC,2002,,MR-Jr,Raw,SBD,80.3,83,182.5,192.5,197.5,197.5,140,147.5,-152.5,147.5,205,215,-220,215,560,18
Richard Nguyen #2,M,VIC,1999,,MR-Jr,Raw,SBD,78.55,83,170,180,185,185,127.5,135,-140,135,-210,210,-220,210,530,19
Jarrod Leonard,M,NSW,2001,,MR-Jr,Raw,SBD,79.25,83,195,205,207.5,207.5,120,-125,125,125,175,185,-202.5,185,517.5,20
Johnathan Copp,M,QLD,2000,,MR-Jr,Raw,SBD,82.85,83,175,182.5,190,190,110,115,-120,115,205,212.5,-220,212.5,517.5,21
Joshua Ng #1,M,WA,2001,,MR-Jr,Raw,SBD,74.45,83,160,172.5,180,180,110,117.5,122.5,122.5,180,192.5,200,200,502.5,22
Lachlan Peacock,M,TAS,1999,,MR-Jr,Raw,SBD,76.15,83,170,180,-185,180,100,107.5,-110,107.5,165,-175,175,175,462.5,23
Luca Basile,M,VIC,2001,,MR-Jr,Raw,SBD,80.95,83,75,-77.5,-77.5,75,125,132.5,140,140,75,-77.5,-77.5,75,290,24
Alexander Ikanovic,M,VIC,2000,,MR-Jr,Raw,SBD,83,83,,,,,,,,,,,,,,DQ
Michael Xiong,M,VIC,2001,,MR-Jr,Raw,SBD,83,83,,,,,,,,,,,,,,DQ
Janson Trinh,M,VIC,2000,,MR-Jr,Raw,SBD,91.05,93,242.5,260,267.5,267.5,182.5,-192.5,-192.5,182.5,270,293.5,,293.5,743.5,1
Matthew Crundall,M,VIC,1999,,MR-Jr,Raw,SBD,92.7,93,225,230,-235,230,177.5,183.5,-185.5,183.5,265,285,-300,285,698.5,2
Jacob Abade,M,NSW,1999,,MR-Jr,Raw,SBD,92.6,93,225,-235,235,235,135,145,150,150,260,277.5,282.5,282.5,667.5,3
Jason Cao,M,NSW,2002,,MR-Jr,Raw,SBD,92.2,93,225,-235,235,235,135,-140,-140,135,250,275,290,290,660,4
Nicholas Morrison,M,ACT,2000,,MR-Jr,Raw,SBD,91.05,93,215,235,245,245,-130,-130,130,130,255,275,-285,275,650,5
Nathan Nguyen #2,M,NSW,1999,,MR-Jr,Raw,SBD,91.85,93,232.5,242.5,250,250,127.5,135,140,140,222.5,237.5,247.5,247.5,637.5,6
Daniel Le,M,NSW,2001,,MR-Jr,Raw,SBD,89,93,212.5,225,235,235,140,147.5,155,155,220,232.5,242.5,242.5,632.5,7
Anthony Bingas,M,NSW,1999,,MR-Jr,Raw,SBD,90.95,93,-207.5,207.5,-217.5,207.5,132.5,-140,140,140,265,275,285,285,632.5,8
Gregory Frelingos,M,NSW,2000,,MR-Jr,Raw,SBD,93,93,210,220,225,225,135,142.5,-145,142.5,230,250,260,260,627.5,9
Austin Hedge,M,QLD,1999,,MR-Jr,Raw,SBD,90.05,93,202.5,207.5,212.5,212.5,140,145,-150,145,245,257.5,267.5,267.5,625,10
Lachlan Dawes,M,QLD,2003,,MR-Jr,Raw,SBD,91.75,93,210,217.5,-220,217.5,140,145,-147.5,145,245,260,-270,260,622.5,11
Eoin Brown,M,NSW,2000,,MR-Jr,Raw,SBD,92.3,93,-232.5,232.5,-242.5,232.5,147.5,152.5,-155,152.5,237.5,-250,-250,237.5,622.5,12
Brian Nguyen #1,M,NSW,2001,,MR-Jr,Raw,SBD,90.45,93,217.5,225,230,230,115,120,122.5,122.5,250,257.5,265,265,617.5,13
Edward Sun,M,NSW,2001,,MR-Jr,Raw,SBD,83.7,93,195,-205,215,215,-120,120,127.5,127.5,250,270,-282.5,270,612.5,14
Adriel Pillay,M,QLD,2001,,MR-Jr,Raw,SBD,92.5,93,197.5,-210,215,215,142.5,-147.5,-147.5,142.5,240,-252.5,-252.5,240,597.5,15
Michael Wu,M,NSW,1999,,MR-Jr,Raw,SBD,91.4,93,-220,-220,220,220,122.5,130,135,135,-240,240,-294,240,595,16
Jadyn Lam,M,VIC,2002,,MR-Jr,Raw,SBD,92.05,93,205,217.5,227.5,227.5,112.5,115,120,120,-225,225,245,245,592.5,17
Dominic Parrera,M,NSW,2000,,MR-Jr,Raw,SBD,92.45,93,202.5,212.5,-215,212.5,122.5,127.5,130,130,225,237.5,250,250,592.5,18
Hugo May,M,NSW,2003,,MR-Jr,Raw,SBD,88.2,93,190,202.5,-207.5,202.5,140,-147.5,-147.5,140,225,235,242.5,242.5,585,19
Fletcher Masters,M,SA,2001,,MR-Jr,Raw,SBD,91.75,93,200,212.5,-225,212.5,125,-132.5,-132.5,125,215,232.5,245,245,582.5,20
Samuel Larcher,M,WA,2000,,MR-Jr,Raw,SBD,90.75,93,-185,185,195,195,137.5,145,-147.5,145,225,-235,235,235,575,21
Joshua Canestraro,M,WA,2001,,MR-Jr,Raw,SBD,91.5,93,177.5,185,190,190,142.5,147.5,-150,147.5,187.5,207.5,-217.5,207.5,545,22
Jacob Aldiss,M,QLD,2002,,MR-Jr,Raw,SBD,91.7,93,177.5,187.5,195,195,-115,115,120,120,207.5,217.5,225,225,540,23
Orlando Garrett,M,QLD,2003,,MR-Jr,Raw,SBD,91.5,93,-195,-195,195,195,107.5,112.5,-117.5,112.5,-222.5,232.5,-242.5,232.5,540,24
Cody Aleman,M,QLD,2000,,MR-Jr,Raw,SBD,91.25,93,187.5,195,200,200,130,-135,-135,130,200,210,-220,210,540,25
Mike Guo,M,NSW,2001,,MR-Jr,Raw,SBD,91.7,93,217.5,-227.5,227.5,227.5,-150,-150,-150,,235,245,255,255,,DQ
Alexander Fomin,M,NSW,1999,,MR-Jr,Raw,SBD,102.8,105,237.5,252.5,260,260,160,167.5,-172.5,167.5,-287.5,302.5,316,316,743.5,1
Matthew Foley-Lewis,M,QLD,2003,,MR-Jr,Raw,SBD,101.45,105,222.5,240,250,250,175.5,182,183.5,183.5,280,300,310,310,743.5,2
Brodie Lucchitti,M,NSW,1999,,MR-Jr,Raw,SBD,104.8,105,255,265,275,275,175,-181,-182.5,175,275,290,-297.5,290,740,3
Declan Giltjes,M,TAS,2000,,MR-Jr,Raw,SBD,103.25,105,252.5,262.5,270,270,150,157.5,-162.5,157.5,275,290,-300,290,717.5,4
Ethan Cahill,M,NSW,2000,,MR-Jr,Raw,SBD,104.2,105,250,265,272.5,272.5,170.5,-175,-175,170.5,-252.5,252.5,-275,252.5,695.5,5
Danny Do,M,WA,2002,,MR-Jr,Raw,SBD,101.95,105,225,237.5,247.5,247.5,150,160,-165,160,220,240,247.5,247.5,655,6
Lachlan Allan,M,NSW,2000,,MR-Jr,Raw,SBD,102.5,105,200,212.5,-220,212.5,145,152.5,-160,152.5,245,-257.5,-257.5,245,610,8
Liam Johnston,M,QLD,2001,,MR-Jr,Raw,SBD,97.35,105,222.5,235,242.5,242.5,135,140,142.5,142.5,227.5,240,-247.5,240,625,7
Tommy Le,M,VIC,2000,,MR-Jr,Raw,SBD,102.65,105,195,207.5,212.5,212.5,125,132.5,-137.5,132.5,225,237.5,242.5,242.5,587.5,9
Huy Le,M,VIC,2003,,MR-Jr,Raw,SBD,101.15,105,200,210,220,220,-125,125,132.5,132.5,220,235,-247.5,235,587.5,10
Lewis Polhill,M,NSW,1999,,MR-Jr,Raw,SBD,102.25,105,175,185,195,195,132.5,140,147.5,147.5,220,240,-257.5,240,582.5,11
Joshua Dawson,M,NSW,1999,,MR-Jr,Raw,SBD,103.3,105,200,217.5,225,225,107.5,115,-120,115,205,217.5,225,225,565,12
Luke Irving,M,NSW,2002,,MR-Jr,Raw,SBD,100.5,105,225,-235,235,235,-160,-160,-160,,240,250,-260,250,,DQ
Khristian Argana,M,QLD,1999,,MR-Jr,Raw,SBD,105,105,,,,,,,,,,,,,,DQ
Corey Trask,M,QLD,2002,,MR-Jr,Raw,SBD,119.9,120,235,245,250,250,182.5,192,195.5,195.5,252.5,260,265,265,710.5,1
William Chester,M,VIC,1999,,MR-Jr,Raw,SBD,120,120,,,,,,,,,,,,,,DQ
Benjamin Parraguez,M,NSW,2002,,MR-Jr,Raw,SBD,135.55,120+,225,-245,245,245,170,-180,180,180,270,-290,-310,270,695,1
Jeff Rudd,M,ACT,1982,,MR-M1,Raw,B,105,105,,,,,,,,,,,,,,DQ
Noah Hannibal,M,VIC,1976,,MR-M1,Raw,B,128.3,120+,,,,,180,182.5,-185,182.5,,,,,182.5,1
Damien Parker,M,NSW,1978,,MR-M1,Raw,SBD,82.75,83,187.5,201,210,210,127.5,132.5,-135,132.5,202.5,217.5,-230,217.5,560,1
Andrew de Lepervanche,M,QLD,1974,,MR-M1,Raw,SBD,81.75,83,175,182.5,190,190,110,117.5,-122.5,117.5,200,210,220,220,527.5,2
Adrian Brogan,M,VIC,1973,,MR-M1,Raw,SBD,81.25,83,115,125,135,135,135,-143.5,143.5,143.5,170,185,200,200,478.5,3
Mathew Farren,M,VIC,1979,,MR-M1,Raw,SBD,81.8,83,-155,155,-160,155,-115,115,120,120,75,-80,-80,75,350,4
Jason Raby,M,QLD,1982,,MR-M1,Raw,SBD,91.85,93,200,207.5,212.5,212.5,-162.5,162.5,165,165,220,235,-245,235,612.5,1
Darren Chase,M,WA,1980,,MR-M1,Raw,SBD,92.1,93,190,195,200,200,-117.5,117.5,-122.5,117.5,240,247.5,-252.5,247.5,565,2
Nathan Yerbury,M,NSW,1976,,MR-M1,Raw,SBD,102,105,230,-245,-245,230,150,-155,-155,150,270,-295,-310,270,650,1
Mario Ribeiro,M,WA,1979,,MR-M1,Raw,SBD,102,105,-180,180,195,195,127.5,132.5,-135,132.5,205,220,230,230,557.5,2
Ian Wood,M,QLD,1976,,MR-M1,Raw,SBD,108,120,190,205,215,215,-122.5,-122.5,122.5,122.5,230,240,-245,240,577.5,1
Konstantinos Dimitriadis,M,VIC,1982,,MR-M1,Raw,SBD,105.75,120,170,180,187.5,187.5,117.5,-127.5,-127.5,117.5,180,192.5,-200,192.5,497.5,2
Alexander Le,M,ACT,1971,,MR-M2,Raw,SBD,81.3,83,170,180,187.5,187.5,100,107.5,-110,107.5,212.5,225,236,236,531,1
David Wilde,M,VIC,1972,,MR-M2,Raw,SBD,88.95,93,172.5,182.5,187.5,187.5,107.5,-112.5,112.5,112.5,187.5,202.5,215,215,515,1
Nick Belgrove,M,NSW,1969,,MR-M2,Raw,SBD,92,93,165,172.5,-180,172.5,-115,-115,115,115,185,195,-202.5,195,482.5,2
Fergus Stewart,M,NSW,1964,,MR-M2,Raw,SBD,98.1,105,160,170,180,180,95,-100,-100,95,190,205,-220,205,480,1
Justin Crowley,M,ACT,1965,,MR-M2,Raw,SBD,106.45,120,230,242.5,252.5,252.5,155,-162.5,-162.5,155,230,245,-250,245,652.5,1
Owen Cuthbert,M,QLD,1968,,MR-M2,Raw,SBD,108.3,120,-147.5,147.5,155,155,115,120,125,125,180,-190,-190,180,460,2
Abbas Pordel,M,NSW,1961,,MR-M3,Raw,B,118.1,120,,,,,175,-185,-185,175,,,,,175,1
Wayne Belcher,M,VIC,1959,,MR-M3,Raw,SBD,72.95,74,145,155,-162.5,155,97.5,102.5,-105,102.5,200,215,220,220,477.5,1
Stephen Varady,M,QLD,1962,,MR-M3,Raw,SBD,81.2,83,160,-170,170,170,140,145,-150,145,200,210,-215,210,525,1
Paul Williams #6,M,NSW,1958,,MR-M3,Raw,SBD,81.75,83,127.5,130,145,145,85,-90,90,90,150,165,175,175,410,2
Romano Gaspardis,M,ACT,1959,,MR-M3,Raw,SBD,90.55,93,150,157.5,165,165,75,82.5,85,85,185,192.5,-200,192.5,442.5,1
Simon Butterworth,M,QLD,1958,,MR-M3,Raw,SBD,102.45,105,125,135,145,145,90,97.5,102.5,102.5,175,190,200,200,447.5,1
Rick Lewis,M,QLD,1960,,MR-M3,Raw,SBD,128.1,120+,200,215,225,225,140,-145,-145,140,245,260,275,275,640,1
